{
  "profiles": {
    "SqlTransform.Tests": {
      "commandName": "Executable",
      "executablePath": "%USERPROFILE%\\.nuget\\packages\\nunit.runners.net4\\2.6.4\\tools\\nunit.exe",
      "commandLineArgs": "SqlTransform.Tests.dll"
    }
  }
}